Message name,Message ID,ID-Format,DLC [Byte],Transmitter,Comment,TpMessage,UsrMsgIDSforwardDeviation,UsrMsgIDSbackwardDeviation,UsrMsgIDS,GenMsgCycleTime,GenMsgStartDelayTime,GenMsgSendType,GenMsgCycleTimeFast,GenMsgDelayTime,GenMsgFastOnStart,GenMsgILSupport,GenMsgMinAcceptLength,GenMsgNrOfRepetition,NmMessage,
A_ADAS_CMD_30_10ms,0x110,CAN FD Standard,16,FR_CMR,[P] Periodic,No,10,100,No,10,0,Cyclic,40,0,0,Yes,0,3,No,
A_ADAS_DRV_01_10ms,0x100,CAN FD Standard,32,ADAS_DRV,[P] Periodic,No,10,100,No,10,0,Cyclic,40,0,0,Yes,0,3,No,
A_FR_CMR_FS_01_30ms,0x260,CAN FD Standard,32,FR_CMR,[P] Periodic,No,10,100,No,30,0,Cyclic,40,0,0,Yes,0,3,No,
A_FR_CMR_FS_02_30ms,0x261,CAN FD Standard,32,FR_CMR,[P] Periodic,No,10,100,No,30,0,Cyclic,40,0,0,Yes,0,3,No,
A_FR_CMR_FS_03_30ms,0x262,CAN FD Standard,32,FR_CMR,[P] Periodic,No,10,100,No,30,0,Cyclic,40,0,0,Yes,0,3,No,
A_FR_CMR_FS_04_30ms,0x263,CAN FD Standard,32,FR_CMR,[P] Periodic,No,10,100,No,30,0,Cyclic,40,0,0,Yes,0,3,No,
A_FR_CMR_FS_05_30ms,0x264,CAN FD Standard,32,FR_CMR,[P] Periodic,No,10,100,No,30,0,Cyclic,40,0,0,Yes,0,3,No,
A_FR_CMR_FS_06_30ms,0x265,CAN FD Standard,32,FR_CMR,[P] Periodic,No,10,100,No,30,0,Cyclic,40,0,0,Yes,0,3,No,
A_FR_CMR_FS_07_30ms,0x266,CAN FD Standard,32,FR_CMR,[P] Periodic,No,10,100,No,30,0,Cyclic,40,0,0,Yes,0,3,No,
A_FR_CMR_FS_08_30ms,0x267,CAN FD Standard,32,FR_CMR,[P] Periodic,No,10,100,No,30,0,Cyclic,40,0,0,Yes,0,3,No,
A_FR_CMR_FS_09_30ms,0x268,CAN FD Standard,32,FR_CMR,[P] Periodic,No,10,100,No,30,0,Cyclic,40,0,0,Yes,0,3,No,
A_FR_CMR_FS_10_30ms,0x269,CAN FD Standard,32,FR_CMR,[P] Periodic,No,10,100,No,30,0,Cyclic,40,0,0,Yes,0,3,No,
A_FR_CMR_FS_11_30ms,0x26A,CAN FD Standard,32,FR_CMR,[P] Periodic,No,10,100,No,30,0,Cyclic,40,0,0,Yes,0,3,No,
A_FR_CMR_FS_12_30ms,0x26B,CAN FD Standard,32,FR_CMR,[P] Periodic,No,10,100,No,30,0,Cyclic,40,0,0,Yes,0,3,No,
A_FR_CMR_FS_13_30ms,0x26C,CAN FD Standard,32,FR_CMR,[P] Periodic,No,10,100,No,30,0,Cyclic,40,0,0,Yes,0,3,No,
A_FR_CMR_FS_14_30ms,0x26D,CAN FD Standard,32,FR_CMR,[P] Periodic,No,10,100,No,30,0,Cyclic,40,0,0,Yes,0,3,No,
A_FR_CMR_FS_15_30ms,0x26E,CAN FD Standard,32,FR_CMR,[P] Periodic,No,10,100,No,30,0,Cyclic,40,0,0,Yes,0,3,No,
A_FR_CMR_FS_16_30ms,0x26F,CAN FD Standard,32,FR_CMR,[P] Periodic,No,10,100,No,30,0,Cyclic,40,0,0,Yes,0,3,No,
A_FR_CMR_FS_17_30ms,0x270,CAN FD Standard,32,FR_CMR,[P] Periodic,No,10,100,No,30,0,Cyclic,40,0,0,Yes,0,3,No,
A_FR_CMR_FS_18_30ms,0x271,CAN FD Standard,32,FR_CMR,[P] Periodic,No,10,100,No,30,0,Cyclic,40,0,0,Yes,0,3,No,
A_FR_CMR_FS_19_30ms,0x272,CAN FD Standard,32,FR_CMR,[P] Periodic,No,10,100,No,30,0,Cyclic,40,0,0,Yes,0,3,No,
A_FR_CMR_FS_20_30ms,0x273,CAN FD Standard,32,FR_CMR,[P] Periodic,No,10,100,No,30,0,Cyclic,40,0,0,Yes,0,3,No,
A_FR_CMR_FS_21_30ms,0x274,CAN FD Standard,32,FR_CMR,[P] Periodic,No,10,100,No,30,0,Cyclic,40,0,0,Yes,0,3,No,
A_FR_CMR_FS_22_30ms,0x275,CAN FD Standard,32,FR_CMR,[P] Periodic,No,10,100,No,30,0,Cyclic,40,0,0,Yes,0,3,No,
A_FR_CMR_FS_23_30ms,0x276,CAN FD Standard,32,FR_CMR,[P] Periodic,No,10,100,No,30,0,Cyclic,40,0,0,Yes,0,3,No,
A_FR_CMR_FS_24_30ms,0x277,CAN FD Standard,32,FR_CMR,[P] Periodic,No,10,100,No,30,0,Cyclic,40,0,0,Yes,0,3,No,
A_FR_CMR_Genrl_01_30ms,0x230,CAN FD Standard,16,FR_CMR,[P] Periodic,No,10,100,No,30,0,Cyclic,40,0,0,Yes,0,3,No,
A_FR_CMR_LnMrk_01_50ms,0x365,CAN FD Standard,24,FR_CMR,[P] Periodic,No,10,100,No,50,0,Cyclic,40,0,0,Yes,0,3,No,
A_FR_CMR_LnMrk_02_50ms,0x366,CAN FD Standard,24,FR_CMR,[P] Periodic,No,10,100,No,50,0,Cyclic,40,0,0,Yes,0,3,No,
A_FR_CMR_LnMrk_03_50ms,0x367,CAN FD Standard,24,FR_CMR,[P] Periodic,No,10,100,No,50,0,Cyclic,40,0,0,Yes,0,3,No,
A_FR_CMR_LnMrk_04_50ms,0x368,CAN FD Standard,24,FR_CMR,[P] Periodic,No,10,100,No,50,0,Cyclic,40,0,0,Yes,0,3,No,
A_FR_CMR_LnMrk_05_50ms,0x369,CAN FD Standard,24,FR_CMR,[P] Periodic,No,10,100,No,50,0,Cyclic,40,0,0,Yes,0,3,No,
A_FR_CMR_LnMrk_06_50ms,0x36A,CAN FD Standard,24,FR_CMR,[P] Periodic,No,10,100,No,50,0,Cyclic,40,0,0,Yes,0,3,No,
A_FR_CMR_LnMrk_07_50ms,0x36B,CAN FD Standard,24,FR_CMR,[P] Periodic,No,10,100,No,50,0,Cyclic,40,0,0,Yes,0,3,No,
A_FR_CMR_LnMrk_08_50ms,0x36C,CAN FD Standard,24,FR_CMR,[P] Periodic,No,10,100,No,50,0,Cyclic,40,0,0,Yes,0,3,No,
A_FR_CMR_LnMrk_09_50ms,0x36D,CAN FD Standard,24,FR_CMR,[P] Periodic,No,10,100,No,50,0,Cyclic,40,0,0,Yes,0,3,No,
A_FR_CMR_LnMrk_10_50ms,0x36E,CAN FD Standard,24,FR_CMR,[P] Periodic,No,10,100,No,50,0,Cyclic,40,0,0,Yes,0,3,No,
A_FR_CMR_Ln_01_50ms,0x360,CAN FD Standard,32,FR_CMR,[P] Periodic,No,10,100,No,50,0,Cyclic,40,0,0,Yes,0,3,No,
A_FR_CMR_Ln_02_50ms,0x361,CAN FD Standard,32,FR_CMR,[P] Periodic,No,10,100,No,50,0,Cyclic,40,0,0,Yes,0,3,No,
A_FR_CMR_Ln_03_50ms,0x362,CAN FD Standard,24,FR_CMR,[P] Periodic,No,10,100,No,50,0,Cyclic,40,0,0,Yes,0,3,No,
A_FR_CMR_Obj_01_30ms,0x235,CAN FD Standard,24,FR_CMR,[P] Periodic,No,10,100,No,30,0,Cyclic,40,0,0,Yes,0,3,No,
A_FR_CMR_Obj_02_30ms,0x236,CAN FD Standard,24,FR_CMR,[P] Periodic,No,10,100,No,30,0,Cyclic,40,0,0,Yes,0,3,No,
A_FR_CMR_Obj_03_30ms,0x237,CAN FD Standard,24,FR_CMR,[P] Periodic,No,10,100,No,30,0,Cyclic,40,0,0,Yes,0,3,No,
A_FR_CMR_Obj_04_30ms,0x238,CAN FD Standard,24,FR_CMR,[P] Periodic,No,10,100,No,30,0,Cyclic,40,0,0,Yes,0,3,No,
A_FR_CMR_Obj_05_30ms,0x239,CAN FD Standard,24,FR_CMR,[P] Periodic,No,10,100,No,30,0,Cyclic,40,0,0,Yes,0,3,No,
A_FR_CMR_Obj_06_30ms,0x23A,CAN FD Standard,24,FR_CMR,[P] Periodic,No,10,100,No,30,0,Cyclic,40,0,0,Yes,0,3,No,
A_FR_CMR_Obj_07_30ms,0x23B,CAN FD Standard,24,FR_CMR,[P] Periodic,No,10,100,No,30,0,Cyclic,40,0,0,Yes,0,3,No,
A_FR_CMR_Obj_08_30ms,0x23C,CAN FD Standard,24,FR_CMR,[P] Periodic,No,10,100,No,30,0,Cyclic,40,0,0,Yes,0,3,No,
A_FR_CMR_Obj_09_30ms,0x23D,CAN FD Standard,24,FR_CMR,[P] Periodic,No,10,100,No,30,0,Cyclic,40,0,0,Yes,0,3,No,
A_FR_CMR_Obj_10_30ms,0x23E,CAN FD Standard,24,FR_CMR,[P] Periodic,No,10,100,No,30,0,Cyclic,40,0,0,Yes,0,3,No,
A_FR_CMR_Obj_11_30ms,0x23F,CAN FD Standard,24,FR_CMR,[P] Periodic,No,10,100,No,30,0,Cyclic,40,0,0,Yes,0,3,No,
A_FR_CMR_Obj_12_30ms,0x240,CAN FD Standard,24,FR_CMR,[P] Periodic,No,10,100,No,30,0,Cyclic,40,0,0,Yes,0,3,No,
A_FR_CMR_Obj_13_30ms,0x241,CAN FD Standard,24,FR_CMR,[P] Periodic,No,10,100,No,30,0,Cyclic,40,0,0,Yes,0,3,No,
A_FR_CMR_Obj_14_30ms,0x242,CAN FD Standard,24,FR_CMR,[P] Periodic,No,10,100,No,30,0,Cyclic,40,0,0,Yes,0,3,No,
A_FR_CMR_Obj_15_30ms,0x243,CAN FD Standard,24,FR_CMR,[P] Periodic,No,10,100,No,30,0,Cyclic,40,0,0,Yes,0,3,No,
A_FR_CMR_Obj_16_30ms,0x244,CAN FD Standard,24,FR_CMR,[P] Periodic,No,10,100,No,30,0,Cyclic,40,0,0,Yes,0,3,No,
A_FR_CMR_Obj_17_30ms,0x245,CAN FD Standard,24,FR_CMR,[P] Periodic,No,10,100,No,30,0,Cyclic,40,0,0,Yes,0,3,No,
A_FR_CMR_Obj_18_30ms,0x246,CAN FD Standard,24,FR_CMR,[P] Periodic,No,10,100,No,30,0,Cyclic,40,0,0,Yes,0,3,No,
A_FR_CMR_Obj_19_30ms,0x247,CAN FD Standard,24,FR_CMR,[P] Periodic,No,10,100,No,30,0,Cyclic,40,0,0,Yes,0,3,No,
A_FR_CMR_Obj_20_30ms,0x248,CAN FD Standard,24,FR_CMR,[P] Periodic,No,10,100,No,30,0,Cyclic,40,0,0,Yes,0,3,No,
A_FR_CMR_PP_Genrl_01_50ms,0x380,CAN FD Standard,8,FR_CMR,[P] Periodic,No,10,100,No,50,0,Cyclic,40,0,0,Yes,0,3,No,
A_FR_CMR_PP_IntrPts_01_50ms,0x38A,CAN FD Standard,24,FR_CMR,[P] Periodic,No,10,100,No,50,0,Cyclic,40,0,0,Yes,0,3,No,
A_FR_CMR_PP_IntrPts_02_50ms,0x38B,CAN FD Standard,24,FR_CMR,[P] Periodic,No,10,100,No,50,0,Cyclic,40,0,0,Yes,0,3,No,
A_FR_CMR_PP_IntrPts_03_50ms,0x38C,CAN FD Standard,24,FR_CMR,[P] Periodic,No,10,100,No,50,0,Cyclic,40,0,0,Yes,0,3,No,
A_FR_CMR_PP_IntrPts_04_50ms,0x38D,CAN FD Standard,24,FR_CMR,[P] Periodic,No,10,100,No,50,0,Cyclic,40,0,0,Yes,0,3,No,
A_FR_CMR_PP_IntrPts_05_50ms,0x38E,CAN FD Standard,24,FR_CMR,[P] Periodic,No,10,100,No,50,0,Cyclic,40,0,0,Yes,0,3,No,
A_FR_CMR_PP_IntrPts_06_50ms,0x38F,CAN FD Standard,24,FR_CMR,[P] Periodic,No,10,100,No,50,0,Cyclic,40,0,0,Yes,0,3,No,
A_FR_CMR_PP_Ln_01_50ms,0x385,CAN FD Standard,24,FR_CMR,[P] Periodic,No,10,100,No,50,0,Cyclic,40,0,0,Yes,0,3,No,
A_FR_CMR_PP_Ln_02_50ms,0x386,CAN FD Standard,24,FR_CMR,[P] Periodic,No,10,100,No,50,0,Cyclic,40,0,0,Yes,0,3,No,
A_FR_CMR_StpLn_01_50ms,0x375,CAN FD Standard,32,FR_CMR,[P] Periodic,No,10,100,No,50,0,Cyclic,40,0,0,Yes,0,3,No,
A_FR_CMR_StpLn_02_50ms,0x376,CAN FD Standard,32,FR_CMR,[P] Periodic,No,10,100,No,50,0,Cyclic,40,0,0,Yes,0,3,No,
A_FR_CMR_StpLn_03_50ms,0x377,CAN FD Standard,32,FR_CMR,[P] Periodic,No,10,100,No,50,0,Cyclic,40,0,0,Yes,0,3,No,
A_FR_CMR_StpLn_04_50ms,0x378,CAN FD Standard,32,FR_CMR,[P] Periodic,No,10,100,No,50,0,Cyclic,40,0,0,Yes,0,3,No,
A_FR_CMR_StpLn_05_50ms,0x379,CAN FD Standard,32,FR_CMR,[P] Periodic,No,10,100,No,50,0,Cyclic,40,0,0,Yes,0,3,No,
A_FR_RDR_FS_01_50ms,0x3D0,CAN FD Standard,32,FR_RDR,[P] Periodic,No,10,100,No,50,0,Cyclic,40,0,0,Yes,0,3,No,
A_FR_RDR_FS_02_50ms,0x3D1,CAN FD Standard,32,FR_RDR,[P] Periodic,No,10,100,No,50,0,Cyclic,40,0,0,Yes,0,3,No,
A_FR_RDR_FS_03_50ms,0x3D2,CAN FD Standard,32,FR_RDR,[P] Periodic,No,10,100,No,50,0,Cyclic,40,0,0,Yes,0,3,No,
A_FR_RDR_FS_04_50ms,0x3D3,CAN FD Standard,32,FR_RDR,[P] Periodic,No,10,100,No,50,0,Cyclic,40,0,0,Yes,0,3,No,
A_FR_RDR_FS_05_50ms,0x3D4,CAN FD Standard,32,FR_RDR,[P] Periodic,No,10,100,No,50,0,Cyclic,40,0,0,Yes,0,3,No,
A_FR_RDR_Genrl_01_50ms,0x395,CAN FD Standard,16,FR_RDR,[P] Periodic,No,10,100,No,50,0,Cyclic,40,0,0,Yes,0,3,No,
A_FR_RDR_Genrl_02_50ms,0x396,CAN FD Standard,16,FR_RDR,[P] Periodic,No,10,100,No,50,0,Cyclic,40,0,0,Yes,0,3,No,
A_FR_RDR_ODM_01_50ms,0x3A0,CAN FD Standard,32,FR_RDR,[P] Periodic,No,10,100,No,50,0,Cyclic,40,0,0,Yes,0,3,No,
A_FR_RDR_Obj_01_50ms,0x3A5,CAN FD Standard,24,FR_RDR,[P] Periodic,No,10,100,No,50,0,Cyclic,40,0,0,Yes,0,3,No,
A_FR_RDR_Obj_02_50ms,0x3A6,CAN FD Standard,24,FR_RDR,[P] Periodic,No,10,100,No,50,0,Cyclic,40,0,0,Yes,0,3,No,
A_FR_RDR_Obj_03_50ms,0x3A7,CAN FD Standard,24,FR_RDR,[P] Periodic,No,10,100,No,50,0,Cyclic,40,0,0,Yes,0,3,No,
A_FR_RDR_Obj_04_50ms,0x3A8,CAN FD Standard,24,FR_RDR,[P] Periodic,No,10,100,No,50,0,Cyclic,40,0,0,Yes,0,3,No,
A_FR_RDR_Obj_05_50ms,0x3A9,CAN FD Standard,24,FR_RDR,[P] Periodic,No,10,100,No,50,0,Cyclic,40,0,0,Yes,0,3,No,
A_FR_RDR_Obj_06_50ms,0x3AA,CAN FD Standard,24,FR_RDR,[P] Periodic,No,10,100,No,50,0,Cyclic,40,0,0,Yes,0,3,No,
A_FR_RDR_Obj_07_50ms,0x3AB,CAN FD Standard,24,FR_RDR,[P] Periodic,No,10,100,No,50,0,Cyclic,40,0,0,Yes,0,3,No,
A_FR_RDR_Obj_08_50ms,0x3AC,CAN FD Standard,24,FR_RDR,[P] Periodic,No,10,100,No,50,0,Cyclic,40,0,0,Yes,0,3,No,
A_FR_RDR_Obj_09_50ms,0x3AD,CAN FD Standard,24,FR_RDR,[P] Periodic,No,10,100,No,50,0,Cyclic,40,0,0,Yes,0,3,No,
A_FR_RDR_Obj_10_50ms,0x3AE,CAN FD Standard,24,FR_RDR,[P] Periodic,No,10,100,No,50,0,Cyclic,40,0,0,Yes,0,3,No,
A_FR_RDR_Obj_11_50ms,0x3AF,CAN FD Standard,24,FR_RDR,[P] Periodic,No,10,100,No,50,0,Cyclic,40,0,0,Yes,0,3,No,
A_FR_RDR_Obj_12_50ms,0x3B0,CAN FD Standard,24,FR_RDR,[P] Periodic,No,10,100,No,50,0,Cyclic,40,0,0,Yes,0,3,No,
A_FR_RDR_Obj_13_50ms,0x3B1,CAN FD Standard,24,FR_RDR,[P] Periodic,No,10,100,No,50,0,Cyclic,40,0,0,Yes,0,3,No,
A_FR_RDR_Obj_14_50ms,0x3B2,CAN FD Standard,24,FR_RDR,[P] Periodic,No,10,100,No,50,0,Cyclic,40,0,0,Yes,0,3,No,
A_FR_RDR_Obj_15_50ms,0x3B3,CAN FD Standard,24,FR_RDR,[P] Periodic,No,10,100,No,50,0,Cyclic,40,0,0,Yes,0,3,No,
A_FR_RDR_Obj_16_50ms,0x3B4,CAN FD Standard,24,FR_RDR,[P] Periodic,No,10,100,No,50,0,Cyclic,40,0,0,Yes,0,3,No,
A_FR_RDR_Obj_17_50ms,0x3B5,CAN FD Standard,24,FR_RDR,[P] Periodic,No,10,100,No,50,0,Cyclic,40,0,0,Yes,0,3,No,
A_FR_RDR_Obj_18_50ms,0x3B6,CAN FD Standard,24,FR_RDR,[P] Periodic,No,10,100,No,50,0,Cyclic,40,0,0,Yes,0,3,No,
A_FR_RDR_Obj_19_50ms,0x3B7,CAN FD Standard,24,FR_RDR,[P] Periodic,No,10,100,No,50,0,Cyclic,40,0,0,Yes,0,3,No,
A_FR_RDR_Obj_20_50ms,0x3B8,CAN FD Standard,24,FR_RDR,[P] Periodic,No,10,100,No,50,0,Cyclic,40,0,0,Yes,0,3,No,
A_FR_RDR_Obj_21_50ms,0x3B9,CAN FD Standard,24,FR_RDR,[P] Periodic,No,10,100,No,50,0,Cyclic,40,0,0,Yes,0,3,No,
A_FR_RDR_Obj_22_50ms,0x3BA,CAN FD Standard,24,FR_RDR,[P] Periodic,No,10,100,No,50,0,Cyclic,40,0,0,Yes,0,3,No,
A_FR_RDR_Obj_23_50ms,0x3BB,CAN FD Standard,24,FR_RDR,[P] Periodic,No,10,100,No,50,0,Cyclic,40,0,0,Yes,0,3,No,
A_FR_RDR_Obj_24_50ms,0x3BC,CAN FD Standard,24,FR_RDR,[P] Periodic,No,10,100,No,50,0,Cyclic,40,0,0,Yes,0,3,No,
A_FR_RDR_Obj_25_50ms,0x3BD,CAN FD Standard,24,FR_RDR,[P] Periodic,No,10,100,No,50,0,Cyclic,40,0,0,Yes,0,3,No,
A_FR_RDR_Obj_26_50ms,0x3BE,CAN FD Standard,24,FR_RDR,[P] Periodic,No,10,100,No,50,0,Cyclic,40,0,0,Yes,0,3,No,
A_FR_RDR_Obj_27_50ms,0x3BF,CAN FD Standard,24,FR_RDR,[P] Periodic,No,10,100,No,50,0,Cyclic,40,0,0,Yes,0,3,No,
A_FR_RDR_Obj_28_50ms,0x3C0,CAN FD Standard,24,FR_RDR,[P] Periodic,No,10,100,No,50,0,Cyclic,40,0,0,Yes,0,3,No,
A_FR_RDR_Obj_29_50ms,0x3C1,CAN FD Standard,24,FR_RDR,[P] Periodic,No,10,100,No,50,0,Cyclic,40,0,0,Yes,0,3,No,
A_FR_RDR_Obj_30_50ms,0x3C2,CAN FD Standard,24,FR_RDR,[P] Periodic,No,10,100,No,50,0,Cyclic,40,0,0,Yes,0,3,No,
A_FR_RDR_Obj_31_50ms,0x3C3,CAN FD Standard,24,FR_RDR,[P] Periodic,No,10,100,No,50,0,Cyclic,40,0,0,Yes,0,3,No,
A_FR_RDR_Obj_32_50ms,0x3C4,CAN FD Standard,24,FR_RDR,[P] Periodic,No,10,100,No,50,0,Cyclic,40,0,0,Yes,0,3,No,
T1_RxMsg,0x701,CAN FD Standard,32,T1_dummy,[P] Periodic,No,10,100,No,10,0,Cyclic,40,0,0,Yes,0,3,No,
T1_TxMsg,0x700,CAN FD Standard,32,ADAS_DRV,[P] Periodic,No,10,100,No,10,0,Cyclic,40,0,0,Yes,0,3,No,
