('D:\\00.Company\\11.workspace\\MANDOIVS\\IVS_v1.0\\src\\t1manager\\build\\Main\\PKG-00.pkg',
 {'BINARY': 1,
  'DATA': 1,
  'EXECUTABLE': 1,
  'EXTENSION': 1,
  'PYMODULE': 1,
  'PYSOURCE': 1,
  'PYZ': 0},
 [('PYZ-00.pyz',
   'D:\\00.Company\\11.workspace\\MANDOIVS\\IVS_v1.0\\src\\t1manager\\build\\Main\\PYZ-00.pyz',
   'PYZ'),
  ('struct',
   'c:\\users\\young\\appdata\\local\\programs\\python\\python37\\lib\\struct.pyo',
   'PYMODULE'),
  ('pyimod01_os_path',
   'c:\\users\\young\\appdata\\local\\programs\\python\\python37\\lib\\site-packages\\PyInstaller\\loader\\pyimod01_os_path.pyc',
   'PYMODULE'),
  ('pyimod02_archive',
   'c:\\users\\young\\appdata\\local\\programs\\python\\python37\\lib\\site-packages\\PyInstaller\\loader\\pyimod02_archive.pyc',
   'PYMODULE'),
  ('pyimod03_importers',
   'c:\\users\\young\\appdata\\local\\programs\\python\\python37\\lib\\site-packages\\PyInstaller\\loader\\pyimod03_importers.pyc',
   'PYMODULE'),
  ('pyiboot01_bootstrap',
   'c:\\users\\young\\appdata\\local\\programs\\python\\python37\\lib\\site-packages\\PyInstaller\\loader\\pyiboot01_bootstrap.py',
   'PYSOURCE'),
  ('pyi_rth_pkgres',
   'c:\\users\\young\\appdata\\local\\programs\\python\\python37\\lib\\site-packages\\PyInstaller\\hooks\\rthooks\\pyi_rth_pkgres.py',
   'PYSOURCE'),
  ('pyi_rth_win32api',
   'c:\\users\\young\\appdata\\local\\programs\\python\\python37\\lib\\site-packages\\PyInstaller\\hooks\\rthooks\\pyi_rth_win32api.py',
   'PYSOURCE'),
  ('pyi_rth_win32comgenpy',
   'c:\\users\\young\\appdata\\local\\programs\\python\\python37\\lib\\site-packages\\PyInstaller\\hooks\\rthooks\\pyi_rth_win32comgenpy.py',
   'PYSOURCE'),
  ('pyi_rth_multiprocessing',
   'c:\\users\\young\\appdata\\local\\programs\\python\\python37\\lib\\site-packages\\PyInstaller\\hooks\\rthooks\\pyi_rth_multiprocessing.py',
   'PYSOURCE'),
  ('pyi_rth_certifi',
   'c:\\users\\young\\appdata\\local\\programs\\python\\python37\\lib\\site-packages\\_pyinstaller_hooks_contrib\\hooks\\rthooks\\pyi_rth_certifi.py',
   'PYSOURCE'),
  ('Main',
   'D:\\00.Company\\11.workspace\\MANDOIVS\\IVS_v1.0\\src\\t1manager\\Main.py',
   'PYSOURCE'),
  ('python37.dll',
   'c:\\users\\young\\appdata\\local\\programs\\python\\python37\\python37.dll',
   'BINARY'),
  ('VCRUNTIME140.dll',
   'c:\\users\\young\\appdata\\local\\programs\\python\\python37\\VCRUNTIME140.dll',
   'BINARY'),
  ('libopenblas.NOIJJG62EMASZI6NYURL6JBKM4EVBGM7.gfortran-win_amd64.dll',
   'c:\\users\\young\\appdata\\local\\programs\\python\\python37\\lib\\site-packages\\numpy\\.libs\\libopenblas.NOIJJG62EMASZI6NYURL6JBKM4EVBGM7.gfortran-win_amd64.dll',
   'BINARY'),
  ('pythoncom37.dll',
   'c:\\users\\young\\appdata\\local\\programs\\python\\python37\\lib\\site-packages\\pywin32_system32\\pythoncom37.dll',
   'BINARY'),
  ('pywintypes37.dll',
   'c:\\users\\young\\appdata\\local\\programs\\python\\python37\\lib\\site-packages\\pywin32_system32\\pywintypes37.dll',
   'BINARY'),
  ('select',
   'c:\\users\\young\\appdata\\local\\programs\\python\\python37\\DLLs\\select.pyd',
   'EXTENSION'),
  ('_socket',
   'c:\\users\\young\\appdata\\local\\programs\\python\\python37\\DLLs\\_socket.pyd',
   'EXTENSION'),
  ('_ssl',
   'c:\\users\\young\\appdata\\local\\programs\\python\\python37\\DLLs\\_ssl.pyd',
   'EXTENSION'),
  ('_multiprocessing',
   'c:\\users\\young\\appdata\\local\\programs\\python\\python37\\DLLs\\_multiprocessing.pyd',
   'EXTENSION'),
  ('pyexpat',
   'c:\\users\\young\\appdata\\local\\programs\\python\\python37\\DLLs\\pyexpat.pyd',
   'EXTENSION'),
  ('_hashlib',
   'c:\\users\\young\\appdata\\local\\programs\\python\\python37\\DLLs\\_hashlib.pyd',
   'EXTENSION'),
  ('unicodedata',
   'c:\\users\\young\\appdata\\local\\programs\\python\\python37\\DLLs\\unicodedata.pyd',
   'EXTENSION'),
  ('_decimal',
   'c:\\users\\young\\appdata\\local\\programs\\python\\python37\\DLLs\\_decimal.pyd',
   'EXTENSION'),
  ('_lzma',
   'c:\\users\\young\\appdata\\local\\programs\\python\\python37\\DLLs\\_lzma.pyd',
   'EXTENSION'),
  ('_bz2',
   'c:\\users\\young\\appdata\\local\\programs\\python\\python37\\DLLs\\_bz2.pyd',
   'EXTENSION'),
  ('_ctypes',
   'c:\\users\\young\\appdata\\local\\programs\\python\\python37\\DLLs\\_ctypes.pyd',
   'EXTENSION'),
  ('_queue',
   'c:\\users\\young\\appdata\\local\\programs\\python\\python37\\DLLs\\_queue.pyd',
   'EXTENSION'),
  ('win32trace',
   'c:\\users\\young\\appdata\\local\\programs\\python\\python37\\lib\\site-packages\\win32\\win32trace.pyd',
   'EXTENSION'),
  ('win32ui',
   'c:\\users\\young\\appdata\\local\\programs\\python\\python37\\lib\\site-packages\\Pythonwin\\win32ui.pyd',
   'EXTENSION'),
  ('_win32sysloader',
   'c:\\users\\young\\appdata\\local\\programs\\python\\python37\\lib\\site-packages\\win32\\_win32sysloader.pyd',
   'EXTENSION'),
  ('win32api',
   'c:\\users\\young\\appdata\\local\\programs\\python\\python37\\lib\\site-packages\\win32\\win32api.pyd',
   'EXTENSION'),
  ('win32com.shell.shell',
   'c:\\users\\young\\appdata\\local\\programs\\python\\python37\\lib\\site-packages\\win32comext\\shell\\shell.pyd',
   'EXTENSION'),
  ('win32wnet',
   'c:\\users\\young\\appdata\\local\\programs\\python\\python37\\lib\\site-packages\\win32\\win32wnet.pyd',
   'EXTENSION'),
  ('numpy.core._multiarray_tests',
   'c:\\users\\young\\appdata\\local\\programs\\python\\python37\\lib\\site-packages\\numpy\\core\\_multiarray_tests.cp37-win_amd64.pyd',
   'EXTENSION'),
  ('numpy.core._multiarray_umath',
   'c:\\users\\young\\appdata\\local\\programs\\python\\python37\\lib\\site-packages\\numpy\\core\\_multiarray_umath.cp37-win_amd64.pyd',
   'EXTENSION'),
  ('win32pdh',
   'c:\\users\\young\\appdata\\local\\programs\\python\\python37\\lib\\site-packages\\win32\\win32pdh.pyd',
   'EXTENSION'),
  ('numpy.linalg.lapack_lite',
   'c:\\users\\young\\appdata\\local\\programs\\python\\python37\\lib\\site-packages\\numpy\\linalg\\lapack_lite.cp37-win_amd64.pyd',
   'EXTENSION'),
  ('numpy.random.mtrand',
   'c:\\users\\young\\appdata\\local\\programs\\python\\python37\\lib\\site-packages\\numpy\\random\\mtrand.cp37-win_amd64.pyd',
   'EXTENSION'),
  ('numpy.random._sfc64',
   'c:\\users\\young\\appdata\\local\\programs\\python\\python37\\lib\\site-packages\\numpy\\random\\_sfc64.cp37-win_amd64.pyd',
   'EXTENSION'),
  ('numpy.random._philox',
   'c:\\users\\young\\appdata\\local\\programs\\python\\python37\\lib\\site-packages\\numpy\\random\\_philox.cp37-win_amd64.pyd',
   'EXTENSION'),
  ('numpy.random._pcg64',
   'c:\\users\\young\\appdata\\local\\programs\\python\\python37\\lib\\site-packages\\numpy\\random\\_pcg64.cp37-win_amd64.pyd',
   'EXTENSION'),
  ('numpy.random._mt19937',
   'c:\\users\\young\\appdata\\local\\programs\\python\\python37\\lib\\site-packages\\numpy\\random\\_mt19937.cp37-win_amd64.pyd',
   'EXTENSION'),
  ('numpy.random.bit_generator',
   'c:\\users\\young\\appdata\\local\\programs\\python\\python37\\lib\\site-packages\\numpy\\random\\bit_generator.cp37-win_amd64.pyd',
   'EXTENSION'),
  ('numpy.random._generator',
   'c:\\users\\young\\appdata\\local\\programs\\python\\python37\\lib\\site-packages\\numpy\\random\\_generator.cp37-win_amd64.pyd',
   'EXTENSION'),
  ('numpy.random._bounded_integers',
   'c:\\users\\young\\appdata\\local\\programs\\python\\python37\\lib\\site-packages\\numpy\\random\\_bounded_integers.cp37-win_amd64.pyd',
   'EXTENSION'),
  ('numpy.random._common',
   'c:\\users\\young\\appdata\\local\\programs\\python\\python37\\lib\\site-packages\\numpy\\random\\_common.cp37-win_amd64.pyd',
   'EXTENSION'),
  ('numpy.fft._pocketfft_internal',
   'c:\\users\\young\\appdata\\local\\programs\\python\\python37\\lib\\site-packages\\numpy\\fft\\_pocketfft_internal.cp37-win_amd64.pyd',
   'EXTENSION'),
  ('numpy.linalg._umath_linalg',
   'c:\\users\\young\\appdata\\local\\programs\\python\\python37\\lib\\site-packages\\numpy\\linalg\\_umath_linalg.cp37-win_amd64.pyd',
   'EXTENSION'),
  ('libssl-1_1.dll',
   'c:\\users\\young\\appdata\\local\\programs\\python\\python37\\DLLs\\libssl-1_1.dll',
   'BINARY'),
  ('libcrypto-1_1.dll',
   'c:\\users\\young\\appdata\\local\\programs\\python\\python37\\DLLs\\libcrypto-1_1.dll',
   'BINARY'),
  ('mfc140u.dll',
   'c:\\users\\young\\appdata\\local\\programs\\python\\python37\\lib\\site-packages\\Pythonwin\\mfc140u.dll',
   'BINARY'),
  ('base_library.zip',
   'D:\\00.Company\\11.workspace\\MANDOIVS\\IVS_v1.0\\src\\t1manager\\build\\Main\\base_library.zip',
   'DATA'),
  ('certifi\\cacert.pem',
   'c:\\users\\young\\appdata\\local\\programs\\python\\python37\\lib\\site-packages\\certifi\\cacert.pem',
   'DATA'),
  ('Include\\pyconfig.h',
   'c:\\users\\young\\appdata\\local\\programs\\python\\python37\\Include\\pyconfig.h',
   'DATA'),
  ('Main.exe.manifest',
   'D:\\00.Company\\11.workspace\\MANDOIVS\\IVS_v1.0\\src\\t1manager\\build\\Main\\Main.exe.manifest',
   'BINARY'),
  ('pyi-windows-manifest-filename Main.exe.manifest', '', 'OPTION')],
 False,
 False,
 False,
 [])
